{
    "skillMetadata": {
        "sections": [
            {
                "name": "timeout",
                "fields": [
                    {
                        "name": "timeout",
                        "type": "number",
                        "label":"timeout",
                        "value": "15"
                    }
                ]
            },
            {
                "name": "intercept_allowed",
                "fields": [
                    {
                        "name": "intercept_allowed",
                        "type": "text",
                        "label": "true or false",
                        "value": "false"
                    }
                ]
            },

            {
                "name": "priority",
                "fields": [
                    {
                        "name": "priority",
                        "type": "number",
                        "label":"priority",
                        "value": "50"
                    }
                ]
            }
        ]
    }
}